%YAML 1.1
%TAG !u! tag:unity3d.com,2011:
--- !u!1 &3621981467535291326
GameObject:
  m_ObjectHideFlags: 0
  m_CorrespondingSourceObject: {fileID: 0}
  m_PrefabInstance: {fileID: 0}
  m_PrefabAsset: {fileID: 0}
  serializedVersion: 6
  m_Component:
  - component: {fileID: 3621981467535291324}
  - component: {fileID: 3621981467535291327}
  m_Layer: 0
  m_Name: Right Hand Presence
  m_TagString: Untagged
  m_Icon: {fileID: 0}
  m_NavMeshLayer: 0
  m_StaticEditorFlags: 0
  m_IsActive: 1
--- !u!4 &3621981467535291324
Transform:
  m_ObjectHideFlags: 0
  m_CorrespondingSourceObject: {fileID: 0}
  m_PrefabInstance: {fileID: 0}
  m_PrefabAsset: {fileID: 0}
  m_GameObject: {fileID: 3621981467535291326}
  m_LocalRotation: {x: 0, y: 0, z: 0, w: 1}
  m_LocalPosition: {x: 0, y: 0, z: 0}
  m_LocalScale: {x: 1, y: 1, z: 1}
  m_ConstrainProportionsScale: 0
  m_Children:
  - {fileID: 5726914119787449435}
  m_Father: {fileID: 0}
  m_RootOrder: 0
  m_LocalEulerAnglesHint: {x: 0, y: 0, z: 0}
--- !u!114 &3621981467535291327
MonoBehaviour:
  m_ObjectHideFlags: 0
  m_CorrespondingSourceObject: {fileID: 0}
  m_PrefabInstance: {fileID: 0}
  m_PrefabAsset: {fileID: 0}
  m_GameObject: {fileID: 3621981467535291326}
  m_Enabled: 1
  m_EditorHideFlags: 0
  m_Script: {fileID: 11500000, guid: 99b4a737903b82a43bb95804a2149147, type: 3}
  m_Name: 
  m_EditorClassIdentifier: 
  controllerCharacteristics: 576
  handAnimator: {fileID: 0}
--- !u!1001 &4458298615342282120
PrefabInstance:
  m_ObjectHideFlags: 0
  serializedVersion: 2
  m_Modification:
    m_TransformParent: {fileID: 3621981467535291324}
    m_Modifications:
    - target: {fileID: 8261036530400639443, guid: 3c99d0ba506360a43b8cea08ef805d25,
        type: 3}
      propertyPath: m_RootOrder
      value: 0
      objectReference: {fileID: 0}
    - target: {fileID: 8261036530400639443, guid: 3c99d0ba506360a43b8cea08ef805d25,
        type: 3}
      propertyPath: m_LocalPosition.x
      value: -0.001
      objectReference: {fileID: 0}
    - target: {fileID: 8261036530400639443, guid: 3c99d0ba506360a43b8cea08ef805d25,
        type: 3}
      propertyPath: m_LocalPosition.y
      value: 0.001
      objectReference: {fileID: 0}
    - target: {fileID: 8261036530400639443, guid: 3c99d0ba506360a43b8cea08ef805d25,
        type: 3}
      propertyPath: m_LocalPosition.z
      value: -0.035
      objectReference: {fileID: 0}
    - target: {fileID: 8261036530400639443, guid: 3c99d0ba506360a43b8cea08ef805d25,
        type: 3}
      propertyPath: m_LocalRotation.w
      value: 0.7071068
      objectReference: {fileID: 0}
    - target: {fileID: 8261036530400639443, guid: 3c99d0ba506360a43b8cea08ef805d25,
        type: 3}
      propertyPath: m_LocalRotation.x
      value: 0
      objectReference: {fileID: 0}
    - target: {fileID: 8261036530400639443, guid: 3c99d0ba506360a43b8cea08ef805d25,
        type: 3}
      propertyPath: m_LocalRotation.y
      value: 0
      objectReference: {fileID: 0}
    - target: {fileID: 8261036530400639443, guid: 3c99d0ba506360a43b8cea08ef805d25,
        type: 3}
      propertyPath: m_LocalRotation.z
      value: -0.7071068
      objectReference: {fileID: 0}
    - target: {fileID: 8261036530400639443, guid: 3c99d0ba506360a43b8cea08ef805d25,
        type: 3}
      propertyPath: m_LocalEulerAnglesHint.x
      value: 0
      objectReference: {fileID: 0}
    - target: {fileID: 8261036530400639443, guid: 3c99d0ba506360a43b8cea08ef805d25,
        type: 3}
      propertyPath: m_LocalEulerAnglesHint.y
      value: 0
      objectReference: {fileID: 0}
    - target: {fileID: 8261036530400639443, guid: 3c99d0ba506360a43b8cea08ef805d25,
        type: 3}
      propertyPath: m_LocalEulerAnglesHint.z
      value: -90
      objectReference: {fileID: 0}
    - target: {fileID: 8265230060884797615, guid: 3c99d0ba506360a43b8cea08ef805d25,
        type: 3}
      propertyPath: m_Name
      value: Custom Right Hand Model with Collider
      objectReference: {fileID: 0}
    m_RemovedComponents: []
  m_SourcePrefab: {fileID: 100100000, guid: 3c99d0ba506360a43b8cea08ef805d25, type: 3}
--- !u!4 &5726914119787449435 stripped
Transform:
  m_CorrespondingSourceObject: {fileID: 8261036530400639443, guid: 3c99d0ba506360a43b8cea08ef805d25,
    type: 3}
  m_PrefabInstance: {fileID: 4458298615342282120}
  m_PrefabAsset: {fileID: 0}
